<svg xmlns="http://www.w3.org/2000/svg" width="18.015" height="12.283" viewBox="0 0 18.015 12.283">
  <path id="Icon" d="M648.913-95.449a2.453,2.453,0,0,0,2.457-2.457,2.453,2.453,0,0,0-2.457-2.457,2.453,2.453,0,0,0-2.457,2.457,2.453,2.453,0,0,0,2.457,2.457Zm9.827-4.913h-6.551v5.732h-6.551V-102H644v12.283h1.638v-2.457h14.74v2.457h1.638v-7.37a3.275,3.275,0,0,0-3.276-3.276Z" transform="translate(-644 102)" fill="#0e4f6c" fill-rule="evenodd"/>
</svg>
