<svg xmlns="http://www.w3.org/2000/svg" width="20.486" height="16.389" viewBox="0 0 20.486 16.389">
  <path id="Icon" d="M10280.437,311.7l-8.193,5.122-8.2-5.122v-2.049l8.2,5.122,8.193-5.122Zm0-4.1h-16.389a2.046,2.046,0,0,0-2.039,2.049L10262,321.94a2.054,2.054,0,0,0,2.048,2.049h16.389a2.055,2.055,0,0,0,2.05-2.049V309.649A2.055,2.055,0,0,0,10280.437,307.6Z" transform="translate(-10262 -307.6)" fill="#fff"/>
</svg>
