<svg xmlns="http://www.w3.org/2000/svg" width="20" height="14" viewBox="0 0 20 14">
  <path id="Icon" d="M845-50h20v2H845Zm11.84-9.21A2.064,2.064,0,0,0,857-60a2.006,2.006,0,0,0-2-2,2.006,2.006,0,0,0-2,2,2.064,2.064,0,0,0,.16.79A9.012,9.012,0,0,0,846-51h18a9.012,9.012,0,0,0-7.16-8.21Z" transform="translate(-845 62)" fill="#0e4f6c" fill-rule="evenodd"/>
</svg>
