<svg xmlns="http://www.w3.org/2000/svg" width="22.403" height="24.445" viewBox="0 0 22.403 24.445">
  <g id="idea" transform="translate(-2)">
    <ellipse id="Ellipse_12" data-name="Ellipse 12" cx="7.5" cy="8" rx="7.5" ry="8" transform="translate(6 3.574)" fill="#0e4f6c"/>
    <path id="Path_2198" data-name="Path 2198" d="M17.617,8a7.615,7.615,0,0,0-2.688,14.741v4.077a.448.448,0,0,0,.448.448h.448v.9a.448.448,0,0,0,.448.448h2.688a.448.448,0,0,0,.448-.448v-.9h.448a.448.448,0,0,0,.448-.448V22.741A7.615,7.615,0,0,0,17.617,8Zm1.344,18.37a.448.448,0,0,0-.448.448v.9H16.721v-.9a.448.448,0,0,0-.448-.448h-.448V24.13h3.584v2.24ZM19.717,22a.448.448,0,0,0-.308.426v.81H15.825v-.81A.448.448,0,0,0,15.516,22a6.721,6.721,0,1,1,4.2,0Z" transform="translate(-4.416 -4.416)" fill="#0e4f6c" stroke="#0e4f6c" stroke-width="0.5"/>
    <path id="Path_2199" data-name="Path 2199" d="M26.448,2.688A.448.448,0,0,0,26.9,2.24V.448a.448.448,0,1,0-.9,0V2.24A.448.448,0,0,0,26.448,2.688Z" transform="translate(-13.247)" fill="#0e4f6c"/>
    <path id="Path_2200" data-name="Path 2200" d="M48.24,24H46.448a.448.448,0,1,0,0,.9H48.24a.448.448,0,0,0,0-.9Z" transform="translate(-24.286 -13.247)" fill="#0e4f6c"/>
    <path id="Path_2201" data-name="Path 2201" d="M4.24,24H2.448a.448.448,0,0,0,0,.9H4.24a.448.448,0,0,0,0-.9Z" transform="translate(0 -13.247)" fill="#0e4f6c"/>
    <path id="Path_2202" data-name="Path 2202" d="M41.541,7.16,40.274,8.427a.448.448,0,1,0,.634.634l1.267-1.267a.448.448,0,0,0-.634-.634Z" transform="translate(-21.053 -3.88)" fill="#0e4f6c"/>
    <path id="Path_2203" data-name="Path 2203" d="M10.427,38.274,9.16,39.541a.448.448,0,1,0,.634.634l1.267-1.267a.448.448,0,1,0-.634-.634Z" transform="translate(-3.879 -21.053)" fill="#0e4f6c"/>
    <path id="Path_2204" data-name="Path 2204" d="M40.908,38.274a.448.448,0,0,0-.634.634l1.267,1.267a.448.448,0,0,0,.634-.634Z" transform="translate(-21.053 -21.053)" fill="#0e4f6c"/>
    <path id="Path_2205" data-name="Path 2205" d="M10.427,9.061a.448.448,0,1,0,.634-.634L9.794,7.16a.448.448,0,0,0-.634.634Z" transform="translate(-3.879 -3.879)" fill="#0e4f6c"/>
    <path id="Path_2206" data-name="Path 2206" d="M20.377,13A5.383,5.383,0,0,0,15,18.377a.448.448,0,0,0,.9,0A4.486,4.486,0,0,1,20.377,13.9a.448.448,0,1,0,0-.9Z" transform="translate(-7.175 -7.175)" fill="#fff"/>
  </g>
</svg>
