<svg xmlns="http://www.w3.org/2000/svg" width="28.37" height="24.535" viewBox="0 0 28.37 24.535">
  <path id="Path_17" data-name="Path 17" d="M147.795,116.587l-7.049-6.921-5.838-5.886a.57.57,0,0,0-.517-.335h0a.57.57,0,0,0-.518.336L120.83,116.587a.568.568,0,1,0,.8.81l1.481-1.454v9.912a1.125,1.125,0,0,0,1.124,1.124h20.321a1.126,1.126,0,0,0,1.125-1.124V116.1L147,117.4a.568.568,0,1,0,.8-.81Zm-15.709,9.257v-6.47h4.61v6.47ZM144.54,115.1l.011,10.743-6.719,0v-6.474a1.137,1.137,0,0,0-1.136-1.136h-4.61a1.137,1.137,0,0,0-1.136,1.136v6.477l-6.709,0,0-10.747,10.079-10.162,5.706,5.6Z" transform="translate(-120.16 -102.945)" fill="#0e4f6c" stroke="#0e4f6c" stroke-width="1"/>
</svg>
