<svg xmlns="http://www.w3.org/2000/svg" width="12" height="10" viewBox="0 0 12 10">
  <path id="Fill_1_Copy_3" data-name="Fill 1 Copy 3" d="M12,2.9a2.854,2.854,0,0,1-.869,2.052L6,10,.869,4.954a2.858,2.858,0,0,1,0-4.105A2.941,2.941,0,0,1,2.957,0,2.96,2.96,0,0,1,5.045.849L5.8,1.6a.287.287,0,0,0,.393,0L6.955.849a2.992,2.992,0,0,1,4.175,0A2.865,2.865,0,0,1,12,2.9" fill="#fd687d"/>
</svg>
