<svg xmlns="http://www.w3.org/2000/svg" width="20" height="17" viewBox="0 0 20 17">
  <path id="Icon" d="M733-328v-6h4v6h5v-8h3l-10-9-10,9h3v8Z" transform="translate(-725 345)" fill="#0e4f6c" fill-rule="evenodd"/>
</svg>
