<svg xmlns="http://www.w3.org/2000/svg" xmlns:xlink="http://www.w3.org/1999/xlink" width="30.047" height="35.401" viewBox="0 0 30.047 35.401">
  <defs>
    <filter id="Union_1" x="0" y="0" width="30.047" height="35.401" filterUnits="userSpaceOnUse">
      <feOffset dy="2" input="SourceAlpha"/>
      <feGaussianBlur stdDeviation="3" result="blur"/>
      <feFlood flood-opacity="0.212"/>
      <feComposite operator="in" in2="blur"/>
      <feComposite in="SourceGraphic"/>
    </filter>
  </defs>
  <g id="Group_2" data-name="Group 2" transform="translate(9 7)">
    <g id="Group_1" data-name="Group 1" transform="translate(0 0)">
      <g transform="matrix(1, 0, 0, 1, -9, -7)" filter="url(#Union_1)">
        <path id="Union_1-2" data-name="Union 1" d="M2.678,17.4a.669.669,0,0,1,0-1.338H5.354V14.682a5.841,5.841,0,0,1-3.812-1.96A5.808,5.808,0,0,1,0,8.7V7.362a.643.643,0,0,1,.2-.471.643.643,0,0,1,.471-.2.646.646,0,0,1,.471.2.642.642,0,0,1,.2.471V8.7a4.516,4.516,0,0,0,1.375,3.31,4.516,4.516,0,0,0,3.31,1.375A4.512,4.512,0,0,0,9.333,12.01,4.512,4.512,0,0,0,10.708,8.7V7.362a.67.67,0,0,1,1.339,0V8.7A5.812,5.812,0,0,1,10.5,12.722a5.845,5.845,0,0,1-3.811,1.96v1.381H9.37a.669.669,0,0,1,0,1.338Zm.983-6.337A3.222,3.222,0,0,1,2.678,8.7V3.346A3.223,3.223,0,0,1,3.66.983,3.222,3.222,0,0,1,6.024,0,3.223,3.223,0,0,1,8.387.983,3.223,3.223,0,0,1,9.37,3.346V8.7a3.222,3.222,0,0,1-.983,2.363,3.223,3.223,0,0,1-2.363.983A3.222,3.222,0,0,1,3.66,11.064Z" transform="translate(9 7)" fill="#fff"/>
      </g>
    </g>
  </g>
</svg>
