<svg xmlns="http://www.w3.org/2000/svg" width="20.948" height="20.948" viewBox="0 0 20.948 20.948">
  <path id="Icon" d="M454.474-219.335a3.808,3.808,0,0,0-3.809,3.809,3.808,3.808,0,0,0,3.809,3.809,3.808,3.808,0,0,0,3.809-3.809,3.808,3.808,0,0,0-3.809-3.809Zm8.512,2.857a8.564,8.564,0,0,0-7.56-7.56V-226h-1.9v1.961a8.564,8.564,0,0,0-7.56,7.56H444v1.9h1.962a8.564,8.564,0,0,0,7.56,7.56v1.961h1.9v-1.961a8.564,8.564,0,0,0,7.56-7.56h1.961v-1.9Zm-8.512,7.617a6.66,6.66,0,0,1-6.665-6.665,6.66,6.66,0,0,1,6.665-6.665,6.66,6.66,0,0,1,6.665,6.665,6.66,6.66,0,0,1-6.665,6.665Z" transform="translate(-444 226)" fill="#0e4f6c" fill-rule="evenodd"/>
</svg>
