<svg xmlns="http://www.w3.org/2000/svg" width="13.172" height="12.538" viewBox="0 0 13.172 12.538">
  <g id="Group_3867" data-name="Group 3867" transform="translate(-72 -754.179)">
    <g id="Group_3780" data-name="Group 3780" transform="translate(72 754.179)">
      <g id="Rectangle_3421" data-name="Rectangle 3421" transform="translate(0 0)" fill="none" stroke="#fff" stroke-width="1">
        <rect width="6.269" height="6.269" stroke="none"/>
        <rect x="0.5" y="0.5" width="5.269" height="5.269" fill="none"/>
      </g>
      <g id="Rectangle_3422" data-name="Rectangle 3422" transform="translate(5.224 0)" fill="none" stroke="#fff" stroke-width="1">
        <rect width="6.269" height="6.269" stroke="none"/>
        <rect x="0.5" y="0.5" width="5.269" height="5.269" fill="none"/>
      </g>
      <g id="Rectangle_3423" data-name="Rectangle 3423" transform="translate(0 5.224)" fill="none" stroke="#fff" stroke-width="1">
        <rect width="6.269" height="6.269" stroke="none"/>
        <rect x="0.5" y="0.5" width="5.269" height="5.269" fill="none"/>
      </g>
    </g>
    <rect id="Rectangle_3424" data-name="Rectangle 3424" width="0.854" height="5.123" transform="translate(82.184 761.594)" fill="#fff"/>
    <rect id="Rectangle_3425" data-name="Rectangle 3425" width="0.854" height="5.123" transform="translate(80.049 764.582) rotate(-90)" fill="#fff"/>
  </g>
</svg>
