<svg xmlns="http://www.w3.org/2000/svg" width="25.968" height="20.978" viewBox="0 0 25.968 20.978">
  <g id="double-king-size-bed" transform="translate(0 -37.528)">
    <path id="Path_2168" data-name="Path 2168" d="M26.648,51.542l-2.858-4.526V38.692l-1.164-1.164H4.806L3.642,38.692v8.325L.784,51.542ZM21.462,39.855v5.809a31.2,31.2,0,0,0-7.746-.866,31.2,31.2,0,0,0-7.746.866V39.855Z" transform="translate(-0.732)" fill="#00b1ff"/>
    <path id="Path_2169" data-name="Path 2169" d="M0,269.831v2.327H2.711v3.2H5.039v-3.2H20.93v3.2h2.327v-3.2h2.711v-2.327Z" transform="translate(0 -216.857)" fill="#00b1ff"/>
    <path id="Path_2170" data-name="Path 2170" d="M107.833,89.161V87.805c0-.8-1.168-1.457-2.608-1.457s-2.608.653-2.608,1.457V89.84a21.889,21.889,0,0,1,2.6-.488C106.164,89.262,107.833,89.161,107.833,89.161Z" transform="translate(-95.793 -45.574)" fill="#00b1ff"/>
    <path id="Path_2171" data-name="Path 2171" d="M214.7,89.84V87.805c0-.8-1.168-1.457-2.608-1.457s-2.608.653-2.608,1.457v1.356s1.669.1,2.621.192A21.888,21.888,0,0,1,214.7,89.84Z" transform="translate(-195.553 -45.574)" fill="#00b1ff"/>
  </g>
</svg>
