<svg xmlns="http://www.w3.org/2000/svg" width="16" height="16" viewBox="0 0 16 16">
  <path id="Icon" d="M1047-96l13.052,1-6.472-6.59L1055-103l8,8-5.664,5.664L1055-87l-1.41-1.41,6.462-6.59Z" transform="translate(-1047 103)" fill="#fff" fill-rule="evenodd"/>
</svg>
